module bms_mod

go 1.21.1

require (
	github.com/jmoiron/sqlx v1.3.5
	github.com/labstack/echo/v4 v4.11.1
	github.com/lib/pq v1.10.9
)

require (
	github.com/deepmap/oapi-codegen v1.14.0 // indirect
	github.com/getkin/kin-openapi v0.118.0 // indirect
	github.com/go-openapi/jsonpointer v0.19.5 // indirect
	github.com/go-openapi/swag v0.19.5 // indirect
	github.com/invopop/yaml v0.1.0 // indirect
	github.com/josharian/intern v1.0.0 // indirect
	github.com/labstack/gommon v0.4.0 // indirect
	github.com/mailru/easyjson v0.7.7 // indirect
	github.com/mattn/go-colorable v0.1.13 // indirect
	github.com/mattn/go-isatty v0.0.19 // indirect
	github.com/mohae/deepcopy v0.0.0-20170929034955-c48cc78d4826 // indirect
	github.com/perimeterx/marshmallow v1.1.4 // indirect
	github.com/stretchr/testify v1.8.4 // indirect
	github.com/valyala/bytebufferpool v1.0.0 // indirect
	github.com/valyala/fasttemplate v1.2.2 // indirect
	golang.org/x/crypto v0.12.0 // indirect
	golang.org/x/mod v0.12.0 // indirect
	golang.org/x/net v0.14.0 // indirect
	golang.org/x/sys v0.11.0 // indirect
	golang.org/x/text v0.12.0 // indirect
	golang.org/x/tools v0.12.0 // indirect
	gopkg.in/yaml.v2 v2.4.0 // indirect
	gopkg.in/yaml.v3 v3.0.1 // indirect
)
